{
  "kind": "collectionType",
  "collectionName": "commentaries",
  "info": {
    "singularName": "commentary",
    "pluralName": "commentaries",
    "displayName": "Commentary",
    "description": ""
  },
  "options": {
    "draftAndPublish": true
  },
  "pluginOptions": {},
  "attributes": {
    "content": {
      "type": "text",
      "required": true
    },
    "date": {
      "type": "datetime",
      "required": true
    },
    "podcast": {
      "type": "relation",
      "relation": "manyToOne",
      "target": "api::podcast.podcast",
      "inversedBy": "commentaries"
    },
    "users_permissions_user": {
      "type": "relation",
      "relation": "manyToOne",
      "target": "plugin::users-permissions.user",
      "inversedBy": "commentaries"
    }
  }
}
